            Username                           User         ABSMAX        BALLOON       CNTPAIRS       DIVQUERY         GROUPS   Global
                 ...                        ... CHY             0              0              0              0              0        0 
           123456ggh                  123456ggh CVP            50              0             48              0              0       98 
        17TiTuanKiet              17TiTuanKiet CTLV            50              0             28              0             10       88 
            AnhAmAnk            AnhAmAnk QUYNHHUONG             0              0              0              0              0        0 
          Anti_Lenin Anti_Lenin Hội Đức Thánh Chúa Trời            50              0             18              0              0       68 
               Cello                      Cello CTH            50             20             48              0             13      131 
       Chiruyo Isaki              Chiruyo Isaki CTH            50             20             18              0              0       88 
  Chỉ được bạc HSGSO         Chỉ được bạc HSGSO CTH            50              0             40              0              0       90 
    Comchienrangmuoi Comchienrangmuoi Chuyên Cơm Chiên            50              3             48              0             13      114 
               Crazy                    Crazy Nà Ní            50              0             28              0              0       78 
      Cá Nóc Cắn Cáp  Cá Nóc Cắn Cáp Chuyên Cắn Cáp            50             50             26             50             50      226 
         EmiliaA2CVP EmiliaA2CVP Học sinh cô Hương em trai anh Mạnh              50              0             50              0             10      110 
           Empire309               Empire309 CT-CVP            50              0             18              0              0       68 
             EonHino                  EonHino Dota2             0              3              4              0              0        7 
             Escanor                    Escanor CHT            50              0             18              0              0       68 
               Evos                    Evos  Cvp sợ             0              0              0              0              0        0 
            Giao hợp              Giao hợp Mẫu thân             0              0              0              0              0        0 
               HSMIV                HSMIV Chuyên cc            50             13             50              0              0      113 
          Hien Jeony                 Hien Jeony ILS            50              0             28              0             13       91 
           I_Love_KV                   I_Love_KV CT            15              0             18              0              0       33 
                 Jug                        Jug CQH             0              0              0              0              0        0 
                 Kai                        Kai CQH            50              0             38              0              0       88 
     Kurihara Midori            Kurihara Midori CTH            50             43             48             50              0      191 
      Le Manh Khuong Le Manh Khuong Chú Bằng Đa Tài             0              0              0              0              0        0 
                 Lâm                       Lâm CABC             0              0              0              0              0        0 
        Lệnh Hồ Xung           Lệnh Hồ Xung Hoa Sơn             0              0              0              0              0        0 
              MD1504                    MD1504 EVOS             0              0              0              0              0        0 
              MINARI             MINARI (: TWICE :)            50             20             30              0              0      100 
            ManhDung                  ManhDung EVOS            50              0             28              0              8       86 
      Mình_Có_JAlter         Mình_Có_JAlter Chaldea             0              0              0              0              0        0 
             NCK Bão      NCK Bão Môn phái Duy Dũng            50             13             50              0              8      121 
          Nam Phương  Nam Phương Hàm Rồng Thanh Hóa            50              5             48              0             13      116 
         Nam StartUp Nam StartUp CHT - Chuyên Hà Tĩnh            50             50             20              0              0      120 
 Nguyễn Trần Anh Đức        Nguyễn Trần Anh Đức CHV            50             50              0              0              0      100 
           OliviaHye        OliviaHye dlrowehtanool            50             50             50             50              0      200 
      Phạm Minh Quân               Phạm Minh Quân               0              0              0              0              0        0 
     SemiCOLons_Phuc     SemiCOLons_Phuc SemiCOLons            50              0              0              0              0       50 
 SemiCOLons_SonAluoi SemiCOLons_SonAluoi SemiCOLons            50              0              8              0              0       58 
         ThanhYeuThu ThanhYeuThu CLTV - Chuyên Lương Thế Vinh            50             50             50             30              0      180 
      Thái Xuân Đăng     Thái Xuân Đăng học quá dốt            50             50             50             50             50      250 
         Vi Tiểu Bảo      Vi Tiểu Bảo Thiên Địa Hội             0              0              0              0              0        0 
                Xuân                   Xuân CQH-Huế             0              0              0              0              0        0 
                   a                            a a             0              0              0              0              0        0 
          anhdungcvp                 anhdungcvp CVP            50              0             50              0             13      113 
             baduy09                    baduy09 LTV            50              0             48              0              0       98 
              basket                     basket CTN             0              0              0              0              0        0 
  basketballismylife         basketballismylife CTN            50              0             50             18              0      118 
           bestyasuo      bestyasuo THPT Đào Duy Từ            50             10             48              0             13      121 
      buimanhtiencvp             buimanhtiencvp CVP            50              0             48              0              0       98 
            cbl_toan                   cbl_toan CBL            50             43             30              0             13      136 
        cheeseburger               cheeseburger Meh            50             20             18              0              0       88 
        chimsedinang                chimsedinang               50             50             50              0             25      175 
        chạy luôn đi chạy luôn đi đừng quay đầu lại             0              0              0              0              0        0 
             codengu                    codengu hvt            50              0              0              0              0       50 
            daithien                    daithien ct            50              0             28              0             25      103 
           darkkcyan                 darkkcyan null             0              0              0              0              0        0 
                 dat                        dat cvp            50              0             50              0             10      110 
         dauchamphay          dauchamphay ĐH Ca Hát            15              0              0              0              0       15 
                eyes                         eyes 1             0              0              0              0              0        0 
               ha`nh                       ha`nh :3             0              0              0              0              0        0 
          haimeo1201                 haimeo1201 CTH             0              0              0              0              0        0 
             hateTXT        hateTXT Cá Voi - Tự Sát            50              0              2              0              0       52 
                hihi                         hihi a             0              0              0              0              0        0 
       hoanganht1k27 hoanganht1k27 CHT-Chuyên Hà Tĩnh            45              0              0              0              0       45 
      hoangducsmagic          hoangducsmagic NTMKST             0              0              0              0              0        0 
       hoangminh17ti           hoangminh17ti abcxyz            50              0             48              0              0       98 
             inugami                   inugami CLTV            50              3             10              0              0       63 
            iostream   iostream THPT Ly Thuong Kiet             0              0              0              0              0        0 
            jayloner               jayloner &lt;3 LTHN            50              0             26              0              0       76 
              kerbal                  kerbal kerbal            50              0              0              0              0       50 
         khangkontum                khangkontum tin             0              0              0              0              0        0 
          khoa101003                khoa101003 THCS            50              8             22              0              0       80 
           kyonest12                   kyonest12 ls            50             10             48              0             13      121 
               leduy                      leduy CVP            50              0             48              0              0       98 
        lehuuvinh123               lehuuvinh123 CTG             0              0              0              0              0        0 
         linh334qthd                 linh334qthd No            50              0              6              0              0       56 
                 lmt                        lmt zzz             0              0              0              0              0        0 
            lê phong            lê phong chuyên ntt             0              0              0              0              0        0 
             mbfibat      mbfibat Chuyên Thăng Long            50              0             28              0              0       78 
         metacrektal                metacrektal LTV            50             20             48              0              0      118 
             mrrobot               mrrobot Fsociety            50              0              0              0              0       50 
     ngothingocboi22            ngothingocboi22 CVT            15              0             18              0              0       33 
      nguyenkhoa0721             nguyenkhoa0721 CKT            50              0             16              0              0       66 
     nguyenphuocbinh          nguyenphuocbinh NTTKT            50              0             28              0              0       78 
      nguyenthehoang nguyenthehoang THPT Lê Qúy Đôn            50              0             18              0              0       68 
         oppa 300 củ         oppa 300 củ chuyên văn            50             50             50              0              0      150 
ovuvuevuevue enyetuenwuevue ugbemugbem osas ovuvuevuevue enyetuenwuevue ugbemugbem osas CBL             0              0              0              0              0        0 
              papaya                     papaya ACM            50              0             18              0              0       68 
             pazabol pazabol LQD - Chuyên Lê Quý Đôn KH            50             50             50             50             48      248 
         phuleethanh               phuleethanh A2VD            50             35             20              0             15      120 
           quyenmmai                  quyenmmai Tin            50              0              0              0             13       63 
             rianta9                    rianta9 Hue             0              0              0              0              0        0 
             roselee                    roselee FPT             0              0              0              0              0        0 
        sectumsempra               sectumsempra CVP            50              0              0              0              0       50 
              sudoku                     sudoku ACM             0              0              0              0              0        0 
           taolaai:&gt;            taolaai:&gt; taokobiet            50              0             18              0              0       68 
          thaivt1312                 thaivt1312 CHV            50              0             50              0             15      115 
    thamtudeptrai007           thamtudeptrai007 ILS            50              0             26              0             13       89 
          thanghkt56                 thanghkt56 CKT            50             15             28              0              0       93 
          theanhbr01                theanhbr01 VTOI            50              0             14              0              0       64 
     thichbancunglop            thichbancunglop Tin            50              0             38              0             23      111 
      tin2016_ndhanh            tin2016_ndhanh CLTV            50             50             50              0              0      150 
               tqhuy                       tqhuy LS            50              0             50              0              0      100 
        vangtrangtan           vangtrangtan PTITHCM            50             50             50              0              0      150 
          vantoan_19                 vantoan_19 CQT            50             35             34              0              0      119 
         wendy_virgo                wendy_virgo FTV            50             33             50              0             10      143 
            who_am_i        who_am_i i_dont_know :D            50              0             46              0             15      111 
         william2101             william2101 Newbie             0              0              0              0              0        0 
            xmen1404                   xmen1404 CTH            50              3             50              0              0      103 
       Đt Đào Duy Từ  Đt Đào Duy Từ THPT Đào Duy Từ             0              0              0              0              0        0 

